^H:\MYVS\DLL\CONSOLEAPPLICATIONTESTDLL2\CONSOLEAPPLICATIONTESTDLL2\DEBUG\CONSOLEAPPLICATIONTESTDLL2.OBJ|H:\MYVS\DLL\CONSOLEAPPLICATIONTESTDLL2\CONSOLEAPPLICATIONTESTDLL2\DEBUG\STDAFX.OBJ
H:\MYVS\DLL\DEMURACSV2BIN\DEBUG\CONSOLEAPPLICATIONTESTDLL2.ILK
H:\MYVS\DLL\DEMURACSV2BIN\DEBUG\CONSOLEAPPLICATIONTESTDLL2.EXE
H:\MYVS\DLL\DEMURACSV2BIN\DEBUG\CONSOLEAPPLICATIONTESTDLL2.PDB
