^D:\TOBIN\CONSOLEAPPLICATIONTESTDLL2\CONSOLEAPPLICATIONTESTDLL2\X64\DEBUG\CONSOLEAPPLICATIONTESTDLL2.OBJ|D:\TOBIN\CONSOLEAPPLICATIONTESTDLL2\CONSOLEAPPLICATIONTESTDLL2\X64\DEBUG\JSON_READER.OBJ|D:\TOBIN\CONSOLEAPPLICATIONTESTDLL2\CONSOLEAPPLICATIONTESTDLL2\X64\DEBUG\JSON_VALUE.OBJ|D:\TOBIN\CONSOLEAPPLICATIONTESTDLL2\CONSOLEAPPLICATIONTESTDLL2\X64\DEBUG\JSON_WRITER.OBJ|D:\TOBIN\CONSOLEAPPLICATIONTESTDLL2\CONSOLEAPPLICATIONTESTDLL2\X64\DEBUG\STDAFX.OBJ
/OUT:"D:\TOBIN\DEMURACSV2BIN\X64\DEBUG\CONSOLEAPPLICATIONTESTDLL2.EXE" /INCREMENTAL /ILK:"X64\DEBUG\CONSOLEAPPLICATIONTESTDLL2.ILK" /NOLOGO KERNEL32.LIB USER32.LIB GDI32.LIB WINSPOOL.LIB COMDLG32.LIB ADVAPI32.LIB SHELL32.LIB OLE32.LIB OLEAUT32.LIB UUID.LIB ODBC32.LIB ODBCCP32.LIB /MANIFEST /MANIFESTUAC:"level='asInvoker' uiAccess='false'" /manifest:embed /DEBUG /PDB:"D:\TOBIN\DEMURACSV2BIN\X64\DEBUG\CONSOLEAPPLICATIONTESTDLL2.PDB" /SUBSYSTEM:CONSOLE /TLBID:1 /DYNAMICBASE /NXCOMPAT /IMPLIB:"D:\TOBIN\DEMURACSV2BIN\X64\DEBUG\CONSOLEAPPLICATIONTESTDLL2.LIB" /MACHINE:X64 X64\DEBUG\CONSOLEAPPLICATIONTESTDLL2.OBJ
X64\DEBUG\JSON_READER.OBJ
X64\DEBUG\JSON_VALUE.OBJ
X64\DEBUG\JSON_WRITER.OBJ
X64\DEBUG\STDAFX.OBJ
