^H:\MYVS\DLL\DEMURACSV2BIN\DEMURACSV2BIN\DEBUG\CSOT_FORMAT.OBJ|H:\MYVS\DLL\DEMURACSV2BIN\DEMURACSV2BIN\DEBUG\DEMURACSV2BIN.OBJ|H:\MYVS\DLL\DEMURACSV2BIN\DEMURACSV2BIN\DEBUG\DLLMAIN.OBJ|H:\MYVS\DLL\DEMURACSV2BIN\DEMURACSV2BIN\DEBUG\DM_BINBASE.OBJ|H:\MYVS\DLL\DEMURACSV2BIN\DEMURACSV2BIN\DEBUG\NVTTCON.OBJ|H:\MYVS\DLL\DEMURACSV2BIN\DEMURACSV2BIN\DEBUG\NVTTCON71267.OBJ|H:\MYVS\DLL\DEMURACSV2BIN\DEMURACSV2BIN\DEBUG\STDAFX.OBJ|H:\MYVS\DLL\DEMURACSV2BIN\DEMURACSV2BIN\DEBUG\TCONBASE.OBJ|H:\MYVS\DLL\DEMURACSV2BIN\DEMURACSV2BIN\DEBUG\TCONFACTOR.OBJ|H:\MYVS\DLL\DEMURACSV2BIN\DEMURACSV2BIN\DEBUG\VDFORMAT.OBJ
H:\MYVS\DLL\DEMURACSV2BIN\DEBUG\DEMURACSV2BIN.ILK
H:\MYVS\DLL\DEMURACSV2BIN\DEBUG\DEMURACSV2BIN.DLL
H:\MYVS\DLL\DEMURACSV2BIN\DEBUG\DEMURACSV2BIN.PDB
