^H:\MYVS\DLL\DEMURACSV2BIN\DEMURACSV2BIN\DEBUG\CSOT_FORMAT.OBJ|H:\MYVS\DLL\DEMURACSV2BIN\DEMURACSV2BIN\DEBUG\DEMURACSV2BIN.OBJ|H:\MYVS\DLL\DEMURACSV2BIN\DEMURACSV2BIN\DEBUG\DLLMAIN.OBJ|H:\MYVS\DLL\DEMURACSV2BIN\DEMURACSV2BIN\DEBUG\DM_BINBASE.OBJ|H:\MYVS\DLL\DEMURACSV2BIN\DEMURACSV2BIN\DEBUG\NVTTCON.OBJ|H:\MYVS\DLL\DEMURACSV2BIN\DEMURACSV2BIN\DEBUG\NVTTCON71267.OBJ|H:\MYVS\DLL\DEMURACSV2BIN\DEMURACSV2BIN\DEBUG\STDAFX.OBJ|H:\MYVS\DLL\DEMURACSV2BIN\DEMURACSV2BIN\DEBUG\TCONBASE.OBJ|H:\MYVS\DLL\DEMURACSV2BIN\DEMURACSV2BIN\DEBUG\TCONFACTOR.OBJ|H:\MYVS\DLL\DEMURACSV2BIN\DEMURACSV2BIN\DEBUG\VDFORMAT.OBJ
C:\WINDOWS\GLOBALIZATION\SORTING\SORTDEFAULT.NLS
C:\PROGRAM FILES (X86)\WINDOWS KITS\8.1\LIB\WINV6.3\UM\X86\KERNEL32.LIB
C:\PROGRAM FILES (X86)\WINDOWS KITS\8.1\LIB\WINV6.3\UM\X86\USER32.LIB
C:\PROGRAM FILES (X86)\WINDOWS KITS\8.1\LIB\WINV6.3\UM\X86\GDI32.LIB
C:\PROGRAM FILES (X86)\WINDOWS KITS\8.1\LIB\WINV6.3\UM\X86\WINSPOOL.LIB
C:\PROGRAM FILES (X86)\WINDOWS KITS\8.1\LIB\WINV6.3\UM\X86\COMDLG32.LIB
C:\PROGRAM FILES (X86)\WINDOWS KITS\8.1\LIB\WINV6.3\UM\X86\ADVAPI32.LIB
C:\PROGRAM FILES (X86)\WINDOWS KITS\8.1\LIB\WINV6.3\UM\X86\SHELL32.LIB
C:\PROGRAM FILES (X86)\WINDOWS KITS\8.1\LIB\WINV6.3\UM\X86\OLE32.LIB
C:\PROGRAM FILES (X86)\WINDOWS KITS\8.1\LIB\WINV6.3\UM\X86\OLEAUT32.LIB
C:\PROGRAM FILES (X86)\WINDOWS KITS\8.1\LIB\WINV6.3\UM\X86\UUID.LIB
C:\PROGRAM FILES (X86)\WINDOWS KITS\8.1\LIB\WINV6.3\UM\X86\ODBC32.LIB
C:\PROGRAM FILES (X86)\WINDOWS KITS\8.1\LIB\WINV6.3\UM\X86\ODBCCP32.LIB
H:\MYVS\DLL\DEMURACSV2BIN\DEMURACSV2BIN\DEBUG\CSOT_FORMAT.OBJ
H:\MYVS\DLL\DEMURACSV2BIN\DEMURACSV2BIN\DEBUG\DEMURACSV2BIN.OBJ
H:\MYVS\DLL\DEMURACSV2BIN\DEMURACSV2BIN\DEBUG\DLLMAIN.OBJ
H:\MYVS\DLL\DEMURACSV2BIN\DEMURACSV2BIN\DEBUG\DM_BINBASE.OBJ
H:\MYVS\DLL\DEMURACSV2BIN\DEMURACSV2BIN\DEBUG\NVTTCON.OBJ
H:\MYVS\DLL\DEMURACSV2BIN\DEMURACSV2BIN\DEBUG\NVTTCON71267.OBJ
H:\MYVS\DLL\DEMURACSV2BIN\DEMURACSV2BIN\DEBUG\STDAFX.OBJ
H:\MYVS\DLL\DEMURACSV2BIN\DEMURACSV2BIN\DEBUG\TCONBASE.OBJ
H:\MYVS\DLL\DEMURACSV2BIN\DEMURACSV2BIN\DEBUG\TCONFACTOR.OBJ
H:\MYVS\DLL\DEMURACSV2BIN\DEMURACSV2BIN\DEBUG\VDFORMAT.OBJ
C:\PROGRAM FILES (X86)\MICROSOFT VISUAL STUDIO 14.0\VC\LIB\MSVCPRTD.LIB
C:\PROGRAM FILES (X86)\MICROSOFT VISUAL STUDIO 14.0\VC\LIB\MSVCRTD.LIB
C:\PROGRAM FILES (X86)\MICROSOFT VISUAL STUDIO 14.0\VC\LIB\OLDNAMES.LIB
C:\PROGRAM FILES (X86)\MICROSOFT VISUAL STUDIO 14.0\VC\LIB\VCRUNTIMED.LIB
C:\PROGRAM FILES (X86)\WINDOWS KITS\10\LIB\10.0.10240.0\UCRT\X86\UCRTD.LIB
C:\WINDOWS\SYSTEM32\TZRES.DLL
C:\PROGRAM FILES (X86)\MICROSOFT VISUAL STUDIO 14.0\VC\BIN\2052\LINKUI.DLL
C:\PROGRAM FILES (X86)\WINDOWS KITS\8.1\BIN\X86\RC.EXE
C:\PROGRAM FILES (X86)\MICROSOFT VISUAL STUDIO 14.0\VC\BIN\CVTRES.EXE
C:\WINDOWS\SYSTEM32\RSAENH.DLL
